drwxr-xr-x 3  root   root    512   Aug 15  .
drwxr-xr-x 2  root   root    512   Aug 14  ..
-rw-r--r-- 1  steve  steve   1024  Aug 16  somefile
#A line with a pound sign at the beginning
An american doesnt know what a hash # symbol is
